GlobalPM25 Package Summary
…
## # A tibble: 39 × 8
##    stationid                 city           localtime
##        <dbl>                <chr>               <chr>
## 1       1451              Beijing 2017-03-21 23:00:00
## 2       7021 Kolkata US Consulate 2017-03-21 20:00:00
## 3       7020  Mumbai US Consulate 2017-03-21 20:00:00
## 4       7024 New Delhi US Embassy 2017-03-21 20:00:00
## 5       3308             HongKong 2017-03-21 22:00:00
## 6       4143   Istanbul (Aksaray) 2017-03-21 16:00:00
## 7       5773              Bangkok 2017-03-21 20:00:00
## 8       7023 Chennai US Consulate 2017-03-21 20:00:00
## 9       5508                Seoul 2017-03-22 00:00:00
## 10      8191     BWSSB, Bangalore 2017-03-21 21:00:00
## # ... with 29 more rows, and 5 more variables: APL <chr>, pm25 <dbl>,
## #   lat <dbl>, lon <dbl>, localtimezone <chr>
…
